#273 - Livland

owner = A45
controller = A45
add_core = A45
culture = east_damerian
religion = regent_court

hre = yes

base_tax = 4
base_production = 4
base_manpower = 5

trade_goods = wool

capital = ""

is_city = yes








