#385 - Mecca

owner = U07
controller = U07
add_core = U07
add_core = F57
culture = west_sandfang_gnoll
religion = xhazobkult

hre = no

base_tax = 3
base_production = 3
base_manpower = 4

trade_goods = grain

capital = ""

is_city = yes

add_permanent_province_modifier = {
	name = human_minority_oppressed_small
	duration = -1
}






