#57 - Brunswick | 

owner = A11
controller = A11
add_core = A11
culture = pearlsedger
religion = regent_court

hre = yes

base_tax = 2
base_production = 2
base_manpower = 3

trade_goods = grain

capital = ""

is_city = yes
fort_15th = yes 






