# No previous file for Brunei
owner = F29
controller = F29
add_core = F25
culture = sun_elf
religion = bulwari_sun_cult

hre = no

base_tax = 3
base_production = 3
base_manpower = 2

trade_goods = silk

capital = ""

is_city = yes











add_permanent_province_modifier = {
	name = human_minority_coexisting_large
	duration = -1
}
