# No previous file for Chengdu
owner = U05
controller = U05
add_core = U05
culture = brasanni
religion = bulwari_sun_cult

hre = no

base_tax = 1
base_production = 1
base_manpower = 2

trade_goods = spices

capital = ""

is_city = yes









