#903 - Omaha

owner = Z04
controller = Z04
add_core = Z04
culture = wexonard
religion = regent_court

hre = yes

base_tax = 5
base_production = 4
base_manpower = 3

trade_goods = livestock

capital = ""

is_city = yes








add_permanent_province_modifier = {
	name = halfling_minority_coexisting_large
	duration = -1
}