# No previous file for Kaldrland
owner = Z08
controller = Z08
add_core = Z08
culture = west_dalr
religion = skaldhyrric_faith

hre = no

base_tax = 1
base_production = 1
base_manpower = 1

trade_goods = fur

capital = ""

is_city = yes
fort_15th = yes






