G51_south = {
	slot = 1
	generic = no
	ai = yes
	potential = {
		tag = G51
	}
	has_country_shield = yes
	
	G51_secure_allies_in_the_south = {
		icon = mission_establish_the_prikazy
		required_missions = { }
		#position = 1
		
		trigger = {
		    OR = {
			    alliance_with = G48
				alliance_with = G49
				alliance_with = G50
			}
		}

        effect = {
            arpedifer_area = {
				limit = {
					NOT = { is_core = ROOT }
					NOT = { owned_by = ROOT }
				}
				add_permanent_claim = ROOT
		    }
			mtelian_area = {
				limit = {
					NOT = { is_core = ROOT }
					NOT = { owned_by = ROOT }
				}
				add_permanent_claim = ROOT
		    }
			oktikheion_area = {
				limit = {
					NOT = { is_core = ROOT }
					NOT = { owned_by = ROOT }
				}
				add_permanent_claim = ROOT
		    }
		}
	}
	
	G51_strike_first = {
		icon = mission_burning_castle
		required_missions = { G51_secure_allies_in_the_south }
		position = 2
		
		provinces_to_highlight = {
		    OR = {
				province_id = 2730
				province_id = 2731
				province_id = 2762
				province_id = 2763
			}
			NOT = {
				country_or_non_sovereign_subject_holds = ROOT
			}
		}

		trigger = {
		    2730 = { country_or_non_sovereign_subject_holds = ROOT }
			2731 = { country_or_non_sovereign_subject_holds = ROOT }
			2762 = { country_or_non_sovereign_subject_holds = ROOT } 
			2763 = { country_or_non_sovereign_subject_holds = ROOT }
		}
		
		effect = {
		    kimanis_area = {
				limit = {
					NOT = { is_core = ROOT }
					NOT = { owned_by = ROOT }
				}
				add_permanent_claim = ROOT
		    }
		}	
	}
	
	G51_liberate_the_kimabhen = {
		icon = consolidate_the_stadholders
		required_missions = { G51_strike_first }
		position = 3
		
		provinces_to_highlight = {
		    OR = {
			    area = kimanis_area
				province_id = 2765
			}
			NOT = {
				country_or_non_sovereign_subject_holds = ROOT
			}
		}	
		
        trigger = {
		    kimanis_area = {
				type = all
				country_or_non_sovereign_subject_holds = ROOT
			}
			2765 = { country_or_non_sovereign_subject_holds = ROOT }
		}
		
		effect = {
		    add_mil_power = 50
			add_prestige = 25
		}
	}
	
	G51_the_southern_bulwark = {
		icon = mission_portuguese_oman
		required_missions = { G51_liberate_the_kimabhen
                              G51_push_south }
		position = 4
		
		provinces_to_highlight = {
		    OR = {
			    province_id = 2768
				province_id = 2786
			}
			NOT = {
				country_or_non_sovereign_subject_holds = ROOT
			}
		}
		
		trigger = {
		    2768 = {
			    owned_by = ROOT
				OR = {
				    has_building = fort_15th
					has_building = fort_16th
                }
			}
			2786 = {
			    owned_by = ROOT
				OR = {
				    has_building = fort_15th
					has_building = fort_16th
                }
			}	
		}
		
		effect = {
		    2768 = {
			    add_province_modifier = {
				name = "arpedifer_southern_bulwark"
					duration = -1
				}
			}	
		    2786 = {
			    add_province_modifier = {
				name = "arpedifer_southern_bulwark"
					duration = -1
				}
		    }
		}	
	}
	
	G51_the_wind_walls = {
		icon = mission_conquer_air
		required_missions = { G51_the_southern_bulwark }
		position = 5
		
		trigger = {
		    treasury = 500
		}

        effect = {
            add_treasury = -500
			custom_tooltip = tooltip_wind_walls
			hidden_effect = {
			    every_owned_province = {
			        limit = { 
				        owned_by = ROOT
					    region = alecand_region
				    	NOT = { has_province_modifier = kheionai_warded_city }
				    }
                    add_province_modifier = {
				        name = "kheionai_warded_city"
					    duration = -1
				    }
			    }
			}	
		}
	}
}

G51_north = {
	slot = 2
	generic = no
	ai = yes
	potential = {
		tag = G51
	}
	has_country_shield = yes
	
	G51_seize_northwest_alecand = {
		icon = mission_subdue_rajputana
		required_missions = { G51_secure_allies_in_the_south }
		position = 2
		
		provinces_to_highlight = {
		    OR = {
				area = arpedifer_area
				area = mtelian_area
			}
			NOT = {
				country_or_non_sovereign_subject_holds = ROOT
			}
		}
		
		trigger = {
		    arpedifer_area = {
				type = all
				country_or_non_sovereign_subject_holds = ROOT
			}
			mtelian_area = {
				type = all
				country_or_non_sovereign_subject_holds = ROOT
			}
		}
		
		effect = {
		    thorelam_area = {
				limit = {
					NOT = { is_core = ROOT }
					NOT = { owned_by = ROOT }
				}
				add_permanent_claim = ROOT
		    }
			thelkos_area = {
				limit = {
					NOT = { is_core = ROOT }
					NOT = { owned_by = ROOT }
				}
				add_permanent_claim = ROOT
		    }
			eltikan_area = {
				limit = {
					NOT = { is_core = ROOT }
					NOT = { owned_by = ROOT }
				}
				add_permanent_claim = ROOT
		    }
		}
	}
	
	G51_push_south = {
		icon = mission_protect_albania
		required_missions = { G51_seize_northwest_alecand }
		position = 3
		
		provinces_to_highlight = {
		    OR = {
				area = thorelam_area
				area = thelkos_area
				area = eltikan_area
			}
			NOT = {
				country_or_non_sovereign_subject_holds = ROOT
			}
		}
		
		trigger = {
		    thorelam_area = {
				type = all
				country_or_non_sovereign_subject_holds = ROOT
			}
			thelkos_area = {
				type = all
				country_or_non_sovereign_subject_holds = ROOT
			}
			eltikan_area = {
				type = all
				country_or_non_sovereign_subject_holds = ROOT
			}
		}
		
		effect = {
			add_country_modifier = {
				name = arpedifer_defeated_the_barbarians
				duration = 9125 #25 years
			}
		}
	}
	
	G51_deal_with_the_eltibhar = {
		icon = settle_north_america
		required_missions = { G51_push_south }
		position = 4
		
		trigger = {
	        dip_power = 50
	    	num_of_owned_provinces_with = {
	    	    value = 8
                culture = eltibhar			
		    }
        }
	
	    effect = {
	        add_dip_power = -50
			custom_tooltip = tooltip_conversion
			hidden_effect = {
	            every_owned_province = {
		            limit = { 
			            culture = eltibhar 
			        }
		            add_province_modifier = {
			            name = arpedifer_conversion_campaign
			            duration = 9125 #25 years
		            }	
	            }
			}	
	    }
	}	
}

G51_inflation = {
	slot = 3
	generic = no
	ai = yes
	potential = {
		tag = G51
	}
	has_country_shield = yes
	
	G51_a_mountain_of_gold = {
		icon = mission_zambezi_gold
		required_missions = { G51_seize_northwest_alecand }
		position = 3
	
	    provinces_to_highlight = {
		    province_id = 2758
	    }
		
	    trigger = {
	        2758 = {
		        owned_by = ROOT
			    base_production = 10
		    }
        }
		
	    effect = {
	        add_years_of_income = 6
		    add_inflation = 20
	    }
    }
	
	G51_the_mint_house = {
		icon = reform_the_nomocanon
		required_missions = { G51_a_mountain_of_gold }
		position = 4
		
	    provinces_to_highlight = {
		    	province_id = 2758
	    }

        trigger = {
		    treasury = 500
	        2758 = {
		        owned_by = ROOT
			    has_building = courthouse
		    }
        }		
		
		effect = {
		    add_treasury = -500
		    2758 = {
	        	add_province_modifier = {
		    	        name = arpedifer_the_mint_house
			            duration = -1
		        }
			}
	    }
	}	
}

G51_internal = {
	slot = 4
	generic = no
	ai = yes
	potential = {
		tag = G51
	}
	has_country_shield = yes
	
	G51_invite_foreign_artisans = {
		icon = mission_dominate_home_trade_node
		required_missions = { }
		#position = 1
		
		provinces_to_highlight = {
		    	province_id = 2728
	    }

        trigger = {
		    treasury = 250
	        2728 = {
		        owned_by = ROOT
			    development = 20
		    }
        }		
		
		effect = {
		    add_treasury = -250
		    every_owned_province = {
			    limit = {
				    area = arpedifer_area
				}
				add_base_tax = 1
				add_base_production = 1
			}
			add_country_modifier = {
          	    name = arpedifer_influx_of_foreign_talent
		        duration = 3650 #10 years
		    }
	    }
	}
	
	G51_expansion_of_the_cloth_industry = {
		icon = purely_for_commerce
		required_missions = { G51_invite_foreign_artisans }
		position = 2
		
		trigger = {
		    num_of_owned_provinces_with = {
		        value = 5
                trade_goods = wool
                base_production = 7
                has_production_building_trigger = yes
				region = alecand_region
		    }
        }
		
		effect = {
		    custom_tooltip = tooltip_cloth_industry
		    random_owned_province = {
			    limit = {
			        trade_goods = wool
                    base_production = 7
                    has_production_building_trigger = yes
					region = alecand_region
			    }
			    change_trade_goods = cloth
		    }
		    random_owned_province = {
			    limit = {
			        trade_goods = wool
                    base_production = 7
                    has_production_building_trigger = yes
					region = alecand_region
			    }
			    change_trade_goods = cloth
		    }
			random_owned_province = {
			    limit = {
			        trade_goods = wool
                    base_production = 7
                    has_production_building_trigger = yes
					region = alecand_region
			    }
			    change_trade_goods = cloth
		    }
		}	
	}
	
	G51_procure_new_sources_of_sand = {
		icon = mission_saharan_route
		required_missions = { }
		position = 3
		
		provinces_to_highlight = {
		    OR = {
				province_id = 2597
				province_id = 2598
				province_id = 2599
				province_id = 2600
			}
			NOT = {
				owned_by = ROOT
			}
		}
		
		trigger = {
		    OR = {
    		    2597 = { owned_by = ROOT }
	    		2598 = { owned_by = ROOT }
		    	2599 = { owned_by = ROOT } 
			    2600 = { owned_by = ROOT }
		    }
		}
		
		effect = {
		    add_country_modifier = {
          	    name = arpedifer_settling_the_drylands
		        duration = 7300 #20 years
		    }
		    2597 = { add_permanent_claim = ROOT }
			2598 = { add_permanent_claim = ROOT }
			2599 = { add_permanent_claim = ROOT }
			2600 = { add_permanent_claim = ROOT }
		}
	}
	
	G51_settle_the_drylands = {
		icon = mission_conquer_timbuktu
		required_missions = { G51_procure_new_sources_of_sand }
		position = 4
		
		provinces_to_highlight = {
		    OR = {
				province_id = 2597
				province_id = 2598
				province_id = 2599
				province_id = 2600
			}
			NOT = {
				owned_by = ROOT
			}
		}
		
		trigger = {
		    adm_power = 50
    		2597 = { owned_by = ROOT }
	    	2598 = { owned_by = ROOT }
	    	2599 = { owned_by = ROOT } 
		    2600 = { owned_by = ROOT }
		}

        effect = {
		    add_adm_power = -50
			2597 = {
			    add_base_tax = 1
				add_base_manpower = 1
			}
			2598 = {
			    add_base_tax = 1
				add_base_manpower = 1
			}
			2599 = {
			    add_base_tax = 1
				add_base_manpower = 1
			}
			2600 = {
			    add_base_tax = 1
				add_base_manpower = 1
			}
		}	
	}
	
	G51_increase_glass_production = {
		icon = mission_industria_sedera
		required_missions = { G51_settle_the_drylands }
		position = 5
		
		provinces_to_highlight = {
		    	province_id = 2728
	    }

        trigger = {
		    treasury = 500
	        2728 = {
		        owned_by = ROOT
			    has_production_building_trigger = yes
		    }
        }
		
		effect = {
		    add_treasury = -500
			custom_tooltip = tooltip_glass_production
		    random_owned_province = {
			    limit = {
					NOT = { has_province_flag = arpedifer_glass_flag }
					OR = {
						province_id = 2597
						province_id = 2598
						province_id = 2599
						province_id = 2600
					}
				}
				set_province_flag = arpedifer_glass_flag
		        change_trade_goods = glass
			}
		    random_owned_province = {
			    limit = {
					NOT = { has_province_flag = arpedifer_glass_flag }
					OR = {
						province_id = 2597
						province_id = 2598
						province_id = 2599
						province_id = 2600
					}
				}
				set_province_flag = arpedifer_glass_flag
		        change_trade_goods = glass
			}
		    random_owned_province = {
			    limit = {
					NOT = { has_province_flag = arpedifer_glass_flag }
					OR = {
						province_id = 2597
						province_id = 2598
						province_id = 2599
						province_id = 2600
					}
				}
				set_province_flag = arpedifer_glass_flag
		        change_trade_goods = glass
			}
			hidden_effect = {
				every_owned_province = {
					limit = { has_province_flag = arpedifer_glass_flag }
					clr_province_flag = arpedifer_glass_flag
				}
			}
		}	
	}
}

G51_trade = {
	slot = 5
	generic = no
	ai = yes
	potential = {
		tag = G51
	}
	has_country_shield = yes
	
	G51_a_new_harbour = {
		icon = mission_early_game_buildings
		required_missions = { G51_invite_foreign_artisans }
		position = 2
		
		provinces_to_highlight = {
		    province_id = 2728
	    }

        trigger = {
		    treasury = 250
	        2728 = {
		        owned_by = ROOT
				development = 25
			    has_trade_building_trigger = yes
		    }
        }
		
		effect = {
		    add_treasury = -250
		    2728 = {
			    center_of_trade = 1
			}
		}	
	}
	
	G51_nation_of_artisans = {
		icon = wars_of_religion
		required_missions = { G51_a_new_harbour }
		position = 3
		
		provinces_to_highlight = {
		    province_id = 2728
	    }

        trigger = {
	        2728 = {
		        owned_by = ROOT
				development = 30
		    }
			textile = 3
			wharf = 3
        }
		
		effect = {
		    2728 = {
			    add_center_of_trade_level = 1
			}
 			add_country_modifier = {
          	    name = arpedifer_nation_of_artisans
		        duration = -1
		    }
		}
	}
	
	G51_connection_to_the_east = {
		icon = new_pilings
		required_missions = { }
		position = 4
		
		provinces_to_highlight = {
		    province_id = 2595
	    }

        trigger = {
		    treasury = 500
	        2595 = {
		        owned_by = ROOT
				development = 20
				has_trade_building_trigger = yes
		    }
		}
		
		effect = {
		    add_treasury = -500
		    2595 = {
			    add_center_of_trade_level = 1
				change_trade_goods = dyes
				add_province_modifier = {
				name = "arpedifer_eastern_trade_route"
					duration = -1
				}
			}
		}	
	}
}