world_tree_branch = {
	slot = 1
	generic = no
	ai = yes
	has_country_shield = yes

	potential = {
		tag = I46
	}

	emerald_orc_world_tree_lvl_1 = {
		icon = mission_clear_the_delta
		position = 1
		
		provinces_to_highlight = {
			province_id = 874
		}
	
		trigger = {
			owns_core_province = 874
			874 = {
				NOT = {
					has_province_modifier = wt_cursed_land
				}
			}
			adm_power = 200
			dip_power = 200
		}
		
		effect = {
			874 = {
				hidden_effect = { set_province_flag = world_tree }
				add_building_construction = {
					building = world_tree_lvl_1
					speed = 1
					cost = 0
				}
				move_capital_effect = yes
			}
			add_adm_power = -200
			add_dip_power = -200
		}
	}

	emerald_orc_world_tree_lvl_2 = {
		icon = mission_clear_the_delta
		position = 2
		
		required_missions = {
			emerald_orc_world_tree_lvl_1
		}
		
		provinces_to_highlight = {
			owned_by = ROOT
			OR = {
				has_province_flag = world_tree
				has_building = world_tree_root
			}
		}
	
		trigger = {
			owns_core_province = 874
			874 = {
				NOT = {
					has_province_modifier = wt_cursed_land
				}
				has_building = world_tree_lvl_1
				is_capital = yes
			}
			if = {
				limit = { 874 = { has_province_flag = world_tree } }
				world_tree_root = 200
			}
			adm_power = 250
			dip_power = 250
		}

		effect = {
			874 = {
				add_building_construction = {
					building = world_tree_lvl_2
					speed = 1
					cost = 0
				}
			}
			add_adm_power = -250
			add_dip_power = -250
		}
	}

	emerald_orc_world_tree_lvl_3 = {
		icon = mission_clear_the_delta
		position = 3
		
		required_missions = {
			emerald_orc_world_tree_lvl_2
		}

		provinces_to_highlight = {
			owned_by = ROOT
			OR = {
				has_province_flag = world_tree
				has_building = world_tree_root
			}
		}
	
		trigger = {
			owns_core_province = 874
			874 = {
				NOT = {
					has_province_modifier = wt_cursed_land
				}
				has_building = world_tree_lvl_2
				is_capital = yes
			}
			if = {
				limit = { 874 = { has_province_flag = world_tree } }
				world_tree_root = 400
			}
			adm_power = 500
			dip_power = 500
			mil_power = 500
		}

		effect = {
			874 = {
				add_building_construction = {
					building = world_tree_lvl_3
					speed = 1
					cost = 0
				}
			}
			add_adm_power = -500
			add_dip_power = -500
			add_mil_power = -500
		}
	}
}
emerald_council_branch = {
	slot = 1
	generic = no
	ai = yes
	has_country_shield = yes

	potential = {
		tag = I46
	}

	emerald_orc_spread_the_blessing = {
		icon = mission_city_of_victory_vij
		position = 4
		
		provinces_to_highlight = {
			owned_by = ROOT
			culture = green_orc
			NOT = {
				has_province_modifier = emerald_orc_forced_blessing
			}
			superregion = deepwoods_superregion
		}
		
		trigger = {
			num_of_owned_provinces_with = {
				value = 1
				culture = green_orc
				superregion = deepwoods_superregion
			}
			mil_power = 100
		}

		effect = {
			add_mil_power = -100
			add_manpower = 10
			random_owned_province = {
				limit = {
					culture = green_orc
					NOT = {
						has_province_modifier = emerald_orc_forced_blessing
					}
				}
				add_base_manpower = 1
				add_province_modifier = {
					name = emerald_orc_forced_blessing
					duration = 1825
				}
				infantry = I46
				infantry = I46
				infantry = I46
				infantry = I46
				infantry = I46
			}
			set_country_flag = emerald_orc_start_conversion
			hidden_effect = {
				add_disaster_progress = {
					disaster = war_of_the_black_trees
					value = 10
				}
			}
		}
	}

	emerald_orc_emerald_is_new_green = {
		icon = mission_across_the_vindhyas
		position = 5
		
		required_missions = {
			emerald_orc_spread_the_blessing
		}
		
		provinces_to_highlight = {
			superregion = deepwoods_superregion
		}
	
		trigger = {
			num_of_owned_provinces_with = {
				value = 50
				
				superregion = deepwoods_superregion
				NOT = {
					culture = green_orc
				}
			}
		}

		effect = {
			add_stability_or_adm_power = yes
			add_country_modifier = {
				name = emerald_orc_peace_in_deepwoods
				duration = 3650
			}
		}
	}

	emerald_orc_create_emerald_council = {
		icon = mission_gharbianss
		position = 6
		
		required_missions = {
			emerald_orc_emerald_is_new_green
		}
	
		trigger = {
			total_development = 500
			adm_power = 100
			dip_power = 100
			mil_power = 100
		}

		effect = {
			add_stability_or_adm_power = yes
			add_adm_power = -100
			add_dip_power = -100
			add_mil_power = -100
			define_advisor = {
				type = theologian
				name = "Sarkhan Windrage"
				skill = 3
				culture = emerald_orc
				religion = ashentree_pact
				discount = yes
			}
			define_advisor = {
				type = spymaster
				name = "Gotai Blackmoon"
				skill = 3
				culture = emerald_orc
				religion = ashentree_pact
				discount = yes
			}
			define_advisor = {
				type = recruitmaster
				name = "Uruk Forestforge"
				skill = 3
				culture = emerald_orc
				religion = ashentree_pact
				discount = yes
			}
			define_general = { 
				name = "Khozru Greenflame"
				fire = 2
				shock = 9
				manuever = 4
				siege = 2
				female = no
			}
			add_country_modifier = {			# -25% Primary culture advisors cost
				name = emerald_orc_motivated_advisors
				duration = 9125
			}
		}
	}
}
war_for_deepwoods_branch = {
	slot = 2
	generic = no
	ai = yes
	has_country_shield = yes

	potential = {
		tag = I46
	}

	emerald_orc_prepare_for_war = {
		icon = mission_build_up_to_force_limit
		position = 2
		
		required_missions = {
			emerald_orc_rightful_rulers_of_tugund_darakh 
		}
	
		trigger = {
			army_size = 10
			mil_power = 200
		}

		effect = {
			add_mil_power = -200
			capital_scope = {
				add_base_manpower = 3
				add_province_modifier = {		#+5000 manpower, +25% defensiveness, -20% local regiment cost
					name = emerald_orc_warcamp
					duration = 18250
				}
			}
			add_country_modifier = {			#+20% forcelimit, +10% infantry combat ability, +5% morale of armies, -20% land maintenance
				name = emerald_orc_prepared_for_war
				duration = 18250
			}
		}
	}

	emerald_orc_promising_warlord = {
		icon = mission_afghan_frontier
		position = 3
		
		required_missions = {
			emerald_orc_prepare_for_war
		}
	
		trigger = {
			dip_power = 100
			mil_power = 100
		}

		effect = {
			add_dip_power = -100
			add_mil_power = -100
			define_general = { 
				name = "Ariok Baneaxe"
				fire = 0
				shock = 9
				manuever = 6
				siege = 4
				female = no
				trait = master_of_arms_personality
			}
		}
	}

	emerald_orc_war_with_elves = {
		icon = mission_clear_the_delta
		position = 4
		
		required_missions = {
			emerald_orc_promising_warlord
		}
	
		trigger = {
			mil_power = 50
			OR = {
				war_with = I26
				war_with = I27
				war_with = I28
				war_with = I29
				war_with = I30
				war_with = I31
				war_with = I32
				war_with = I33
				war_with = I34
				war_with = I45
				AND = {
					NOT = {exists = I26}
					NOT = {exists = I27}
					NOT = {exists = I28}
					NOT = {exists = I29}
					NOT = {exists = I30}
					NOT = {exists = I31}
					NOT = {exists = I32}
					NOT = {exists = I33}
					NOT = {exists = I34}
					NOT = {exists = I45}
				}
				
			}
		}

		effect = {
			add_mil_power = -50
			add_country_modifier = {				#+15% siege ability, +15% manpower recovery for 10 years
				name = emerald_orc_fighting_for_new_home
				duration = 3650
			}
		}
	}

	emerald_orc_our_deepwoods = {
		icon = mission_clear_the_delta
		position = 5
		
		required_missions = {
			emerald_orc_war_with_elves
		}
	
		trigger = {
			num_of_owned_provinces_with = {
				value = 50
				
				superregion = deepwoods_superregion
			}
		}

		effect = {
			add_mil_power = 400
			add_stability_or_adm_power = yes
			hidden_effect = {
				add_disaster_progress = {
					disaster = war_of_the_black_trees
					value = 10
				}
			}
		}
	}
}
dostanor_branch = {
	slot = 2
	generic = no
	ai = yes
	has_country_shield = yes

	potential = {
		tag = I46
	}

	emerald_orc_southern_direction = {
		icon = mission_build_up_to_force_limit
		position = 7
		
		required_missions = {
			emerald_orc_dispel_ancient_curse
		}
	
		trigger = {
			world_tree_root = 65
		}

		effect = {
			dostanor_region = {
				limit = {
					NOT = { is_core = ROOT }
					NOT = { is_permanent_claim = ROOT }
				}
				add_permanent_claim = ROOT
			}
		}
	}

	emerald_orc_secure_dostanor = {
		icon = mission_conquer_50_development
		position = 8
		
		provinces_to_highlight = {
			region = dostanor_region
			
			NOT = { owned_by = ROOT }
		}
		
		required_missions = {
			emerald_orc_southern_direction
		}
	
		trigger = {
			num_of_owned_provinces_with = {
				value = 18
				
				region = dostanor_region
			}
		}

		effect = {
			add_country_modifier = {			#+5% missionary strength, +1 missionaries, -25% culture conversion cost
				name = emerald_orc_cleansing_dostanor
				duration = 9125
			}
		}
	}
}
reclamaition_branch = {
	slot = 3
	generic = no
	ai = yes
	has_country_shield = yes

	potential = {
		tag = I46
	}

	emerald_orc_rightful_rulers_of_tugund_darakh = {
		icon = mission_crusade_for_varna
		position = 1
	
		trigger = {
			total_development = 100
		}

		effect = {
			deepwoods_superregion = {
				limit = {
					NOT = { is_core = ROOT }
					NOT = { is_permanent_claim = ROOT }
				}
				add_permanent_claim = ROOT
			}
		}
	}

	emerald_orc_united_of_tugund_darakh = {
		icon = mission_unite_home_region
		position = 2
		
		required_missions = {
			emerald_orc_rightful_rulers_of_tugund_darakh 
		}
		
		provinces_to_highlight = {
			superregion = deepwoods_superregion
		}
	
		trigger = {
			num_of_owned_provinces_with = {
				value = 65
				
				superregion = deepwoods_superregion
			}
			mil_power = 100
		}

		effect = {
			add_mil_power = -100
			add_prestige = 25
			capital_scope = {
				area = {
					add_base_manpower = 1
				}
			}
			add_country_modifier = {			#+15% manpower modifier
				name = emerald_orc_new_deepwoods_order
				duration = 9125
			}
		}
	}

	emerald_orc_preparation_for_conquest = {
		icon = mission_annex_prome
		position = 3
		
		required_missions = {
			emerald_orc_united_of_tugund_darakh
		}
	
		trigger = {
			army_size = 40
			manpower_percentage = 0.75
		}

		effect = {
			south_castanor_region = {
				limit = {
					NOT = { is_core = ROOT }
					NOT = { is_permanent_claim = ROOT }
				}
				add_permanent_claim = ROOT
			}
		}
	}

	emerald_orc_cross_the_river = {
		icon = mission_conquer_malwa_guj
		position = 4
		
		required_missions = {
			emerald_orc_preparation_for_conquest 
		}
	
		trigger = {
			num_of_owned_provinces_with = {
				value = 10
				
				region = south_castanor_region
			}
		}

		effect = {
			add_country_modifier = {				#+15% morale of armies for 25 years
				name = emerald_orc_first_strike
				duration = 9125
			}
		}
	}

	emerald_orc_secure_the_cursed_land = {
		icon = mission_secure_khandesh
		position = 5
		
		provinces_to_highlight = {
			province_id = 874
		}
		
		required_missions = {
			emerald_orc_cross_the_river
		}
	
		trigger = {
			owns_core_province = 874
		}

		effect = {
			add_prestige = 5
			add_country_modifier = {				#-1 global unrest for 25 years
				name = emerald_orc_national_celebrations
				duration = 9125
			}
		}
	}

	emerald_orc_dispel_ancient_curse = {
		icon = mission_rein_in_the_velamas
		position = 6
		
		provinces_to_highlight = {
			province_id = 874
		}
		
		required_missions = {
			emerald_orc_secure_the_cursed_land 
		}
	
		trigger = {
			owns_core_province = 874
			ruler_has_mage_personality = yes
			adm_power = 100
			dip_power = 100
			is_at_war = no
			has_regency = no
		}

		effect = {
			add_adm_power = -100
			add_dip_power = -100
			874 = { remove_province_modifier = wt_cursed_land }
		}
	}

	emerald_orc_time_for_revenge = {
		icon = mission_conquer_bengal_dlh
		position = 7
		
		required_missions = {
			emerald_orc_dispel_ancient_curse 
		}
	
		trigger = {
			army_size = 75
		}

		effect = {
			add_country_modifier = {				#+10% shock damage for 25 years
				name = emerald_orc_emerald_tide
				duration = 9125
			}
			south_castanor_region = {
				limit = {
					NOT = { is_core = ROOT }
					NOT = { is_permanent_claim = ROOT }
				}
				add_permanent_claim = ROOT
			}
			inner_castanor_region = {
				limit = {
					NOT = { is_core = ROOT }
					NOT = { is_permanent_claim = ROOT }
				}
				add_permanent_claim = ROOT
			}
			west_castanor_region = {
				limit = {
					NOT = { is_core = ROOT }
					NOT = { is_permanent_claim = ROOT }
				}
				add_permanent_claim = ROOT
			}
		}
	}

	emerald_orc_new_deepwoods = {
		icon = mission_unite_home_region
		position = 8
		
		provinces_to_highlight = {
			region = south_castanor_region
			region = inner_castanor_region
			region = west_castanor_region
			
			NOT = { owned_by = ROOT }
		}
		
		required_missions = {
			emerald_orc_time_for_revenge 
		}
	
		trigger = {
			num_of_owned_provinces_with = {
				value = 150
				
				superregion = escann_superregion
			}
		}

		effect = {
			add_prestige = 25
			add_country_modifier = {				#+10% Administrative efficiency
				name = emerald_orc_new_deepwoods
				duration = -1
			}
		}
	}
}
development_branch = {
	slot = 4
	generic = no
	ai = yes
	has_country_shield = yes

	potential = {
		tag = I46
	}

	emerald_orc_found_our_capital = {
		icon = mission_early_game_buildings
		position = 1
	
		trigger = {
			if = {
				limit = { ai = yes }
				years_of_income = 1.0
				adm_power = 150
				dip_power = 50
				mil_power = 50
			}
			else = {
				adm_power = 100
				years_of_income = 1.0
				capital_scope = { development = 20 }
			}
		}

		effect = {
			add_adm_power = -100
			if = {
				limit = { ai = yes }
				capital_scope = {
					add_base_manpower = 3
					add_base_production = 2
					add_base_tax = 2
				}
			}
			capital_scope = {
				add_base_tax = 1
				add_base_production = 1
				add_base_manpower = 2
				add_province_modifier = {
					name = orc_settling_down
					duration = 14600
				}
			}
		}
	}

	emerald_orc_arvakhur_stronghold_of_spirits = {
		icon = mission_junnagadh_fort
		position = 2
		
		required_missions = {
			emerald_orc_found_our_capital
		}
	
		trigger = {
			if = {
				limit = { ai = yes }
				dip_power = 100
				mil_power = 100
				adm_power = 100
				capital_scope = { 
					superregion = deepwoods_superregion
				}
			}
			else = {
				capital_scope = { 
					development = 30
					base_manpower = 15
					superregion = deepwoods_superregion
				}
				mil_power = 100
			}
		}

		effect = {
			if = {
				limit = { NOT = { capital_scope = { province_has_center_of_trade_of_level = 1 } } }
				capital_scope = { center_of_trade = 1 }
			}
			else_if = {
				limit = { NOT = { capital_scope = { province_has_center_of_trade_of_level = 3 } } }
				capital_scope = { add_center_of_trade_level = 1 }
			}
			else = {
				capital_scope = {
					add_base_manpower = 1
					add_base_production = 1
					add_base_tax = 1
					change_province_name = "Arvakhur"
					rename_capital = "Arvakhur"
				}				
			}
			capital_scope = {
				add_base_manpower = 3
				add_province_modifier = {
					name = improved_fortifications
					duration = -1
				}
			}
			if = {
				limit = { ai = yes }
				capital_scope = {
					add_base_manpower = 4
					add_base_production = 1
					add_base_tax = 1
				}
			}
		}
	}

	emerald_orc_world_city_for_world_tree = {
		icon = mission_clear_the_delta
		position = 3
		
		required_missions = {
			emerald_orc_arvakhur_stronghold_of_spirits
		}
	
		trigger = {
			874 = {
				owned_by = ROOT
				is_core = ROOT
			}
			total_development = 1000
			if = {
				limit = { ai = yes }
				dip_power = 100
				mil_power = 100
				adm_power = 100
			}
			else = {
				adm_power = 50
				dip_power = 50
				mil_power = 50
				874 = {
					development = 30
				}
			}
		}

		effect = {
			874 = {
				move_capital_effect = yes
				add_base_tax = 3
				add_base_production = 3
				add_base_manpower = 3
				add_permanent_province_modifier = {
					name = emerald_orc_city_of_wonder
					duration = -1
				}
			}
		}
	}
}