silvar_ishu_edict = {
	potential = {
		has_country_flag = silvar_ishu
	}
	
	allow = {
		any_province_in_state = {
			superregion = deepwoods_superregion
		}
	}
	
	modifier = {
		trade_goods_size_modifier = 0.33
	}
	
	color = { 53 114 86 }
	
	
	ai_will_do = {
		factor = 200
	}
}
