country_decisions = {

	plutocratic_administration_rep = {
		major = yes
		potential = {
			NOT = { has_dlc = "Dharma" }
			government = republic
			NOT = { has_reform = merchant_republic }
			NOT = { has_reform = imperial_city }
			NOT = { has_reform = ambrosian_republic }
			NOT = { has_reform = dutch_republic }
			NOT = { has_reform = colonial_government }
			NOT = { num_of_provinces_in_states = 21 }
		}
		allow =  {
			stability = 1
			NOT = { num_of_provinces_in_states = 21 }
			trade_income_percentage = 0.3
			full_idea_group = trade_ideas
			full_idea_group = economic_ideas
			is_at_war = no 
			is_subject = no
			custom_trigger_tooltip = {
				tooltip = recently_changed_government_flag_tooltip
				OR = {
					NOT = { has_country_flag = recently_changed_government_flag }
					had_country_flag = { flag = recently_changed_government_flag days = 9125 }
				}
			}
		}
		effect = {
			set_legacy_government = merchant_republic
			add_stability = -1
			set_country_flag = recently_changed_government_flag
		}
		ai_will_do = {
			factor = 1
			modifier = {
				factor = 0
				num_of_cities = 5
			}
			modifier = {
				factor = 0
				OR = {
					technology_group = muslim
					technology_group = indian
					technology_group = chinese
					technology_group = sub_saharan
					technology_group = north_american
					technology_group = mesoamerican
					technology_group = south_american
					technology_group = andean
				}
			}
		}
	}
	
	plutocratic_administration = {
		major = yes
		potential = {
			NOT = { has_dlc = "Dharma" }
			government = monarchy
			NOT = { has_reform = iqta }
			NOT = { has_reform = mamluk_government }
			#OR = {
			#	NOT = { has_reform = english_monarchy }
			#	AND = {
			#		NOT = { tag = ENG }
			#		NOT = { tag = GBR }
			#	}
			#}
			NOT = { has_reform = elective_monarchy }
			NOT = { has_reform = celestial_empire }
			NOT = { has_reform = daimyo }
			NOT = { has_reform = shogunate }
			NOT = { has_reform = revolutionary_empire }
			NOT = { has_reform = feudal_theocracy }
			NOT = { num_of_provinces_in_states = 21 }
			
			#Anbennar
			NOT = { has_reform = raja_reform  }
			NOT = { has_reform = prabhi_reform }
			NOT = { has_reform = indep_prabhi_reform }
			NOT = { has_reform = wulin }
			NOT = { has_reform = xiaken }
			NOT = { has_reform = indep_xiaken }
			NOT = { has_reform = jadd_nobility }
		}
		allow =  {
			stability = 1	
			NOT = { num_of_provinces_in_states = 21 }		
			trade_income_percentage = 0.4
			full_idea_group = trade_ideas
			full_idea_group = economic_ideas
			is_at_war = no 
			is_subject = no
			custom_trigger_tooltip = {
				tooltip = recently_changed_government_flag_tooltip
				OR = {
					NOT = { has_country_flag = recently_changed_government_flag }
					had_country_flag = { flag = recently_changed_government_flag days = 9125 }
				}
			}
		}
		effect = {
			change_government = republic
			set_legacy_government = merchant_republic
			add_stability = -4
			set_country_flag = recently_changed_government_flag
		}
		ai_will_do = {
			factor = 1
			modifier = {
				factor = 0
				OR = {
					adm = 2
					dip = 2
					mil = 2
				}
			}
			modifier = {
				factor = 0
				num_of_cities = 5
			}
			modifier = {
				factor = 0
				OR = {
					technology_group = muslim
					technology_group = indian
					technology_group = chinese
					technology_group = sub_saharan
					technology_group = north_american
					technology_group = mesoamerican
					technology_group = south_american
					technology_group = andean
				}
			}
		}
	}
	
	oligarchic_administration = {
		major = yes
		potential = {
			NOT = { has_dlc = "Dharma" }
			OR = {
				government = monarchy
				has_reform = merchant_republic
			}
			NOT = { has_reform = mamluk_government }
			#OR = {
			#	NOT = { has_reform = english_monarchy }
			#	AND = {
			#		NOT = { tag = ENG }
			#		NOT = { tag = GBR }
			#	}
			#}
			NOT = { has_reform = elective_monarchy }
			NOT = { has_reform = celestial_empire }
			NOT = { has_reform = daimyo }
			NOT = { has_reform = shogunate }
			NOT = { has_reform = revolutionary_empire }
			NOT = { has_reform = feudal_theocracy }
			
			#Anbennar
			NOT = { has_reform = raja_reform  }
			NOT = { has_reform = prabhi_reform }
			NOT = { has_reform = indep_prabhi_reform }
			NOT = { has_reform = wulin }
			NOT = { has_reform = xiaken }
			NOT = { has_reform = indep_xiaken }
			NOT = { has_reform = jadd_nobility }
		}
		allow =  {
			stability = 1
			OR = {
				full_idea_group = aristocracy_ideas
				full_idea_group = plutocracy_ideas
			}
			full_idea_group = influence_ideas
			is_at_war = no 
			is_subject = no
			custom_trigger_tooltip = {
				tooltip = recently_changed_government_flag_tooltip
				OR = {
					NOT = { has_country_flag = recently_changed_government_flag }
					had_country_flag = { flag = recently_changed_government_flag days = 9125 }
				}
			}
		}
		effect = {
			change_government = republic
			set_legacy_government = oligarchic_republic
			add_stability = -4
			set_country_flag = recently_changed_government_flag
		}
		ai_will_do = {
			factor = 1
			modifier = {
				factor = 0
				OR = {
					adm = 2
					dip = 2
					mil = 2
				}
			}
			modifier = {
				factor = 0
				num_of_cities = 5
			}
			modifier = {
				factor = 0
				OR = {
					technology_group = muslim
					technology_group = indian
					technology_group = chinese
					technology_group = sub_saharan
					technology_group = north_american
					technology_group = mesoamerican
					technology_group = south_american
					technology_group = andean
				}
			}
			modifier = {
				factor = 0
				has_government_attribute = is_merchant_republic
			}
		}
	}
	
	theocratic_administration = {
		major = yes
		potential = {
			NOT = { has_dlc = "Dharma" }
			has_dlc = "Common Sense"
			#NOT = { has_reform = iqta }
			#NOT = { has_reform = mamluk_government }
			#OR = {
			#	NOT = { has_reform = english_monarchy }
			#	AND = {
			#		NOT = { tag = ENG }
			#		NOT = { tag = GBR }
			#	}
			#}
			NOT = { has_reform = elective_monarchy }
			NOT = { has_reform = imperial_city }
			NOT = { has_reform = ambrosian_republic }
			NOT = { has_reform = dutch_republic }
			NOT = { has_reform = celestial_empire }
			NOT = { has_reform = daimyo }
			NOT = { has_reform = shogunate }
			NOT = { has_reform = colonial_government }
			NOT = { has_reform = revolutionary_empire }
			NOT = { has_reform = noble_republic }
			NOT = { has_reform = feudal_theocracy }
			OR = {
				government = monarchy
				government = republic
			}
			
			#Anbennar
			NOT = { has_reform = raja_reform  }
			NOT = { has_reform = prabhi_reform }
			NOT = { has_reform = indep_prabhi_reform }
			NOT = { has_reform = wulin }
			NOT = { has_reform = xiaken }
			NOT = { has_reform = indep_xiaken }
			NOT = { has_reform = jadd_nobility }
		}
		allow =  {
			stability = 1	
			full_idea_group = religious_ideas
			full_idea_group = diplomatic_ideas
			is_at_war = no
			religious_unity = 1
			is_subject = no
			custom_trigger_tooltip = {
				tooltip = recently_changed_government_flag_tooltip
				OR = {
					NOT = { has_country_flag = recently_changed_government_flag }
					had_country_flag = { flag = recently_changed_government_flag days = 9125 }
				}
			}
		}
		effect = {
			change_government = theocracy
			set_legacy_government = theocratic_government
			add_stability = -4
			set_country_flag = recently_changed_government_flag
		}
		ai_will_do = {
			factor = 0
		}
	}
	
	formalize_separation_of_powers = {
		potential = {
			has_reform = parliamentary_reform
			NOT = {
				has_country_modifier = separation_of_powers
			}
		}
		allow = {
			stability = 2
			advisor = statesman
			is_at_war = no
		}
		effect = {
			add_country_modifier = {
				name = "separation_of_powers"
				duration = -1
			}
		}
		ai_will_do = {
			factor = 1
		}
	}
	
	go_cult_of_reason = {
		potential = {
			has_reform = revolutionary_republic_reform
			NOT = {
				has_country_modifier = cult_of_reason
			}
		}
		allow = {
			NOT = { stability = -1 }
		}
		effect = {
			add_country_modifier = {
				name = "cult_of_reason"
				duration = -1
			}
		}
		ai_will_do = {
			factor = 1
		}
	}

	iqta_reform = {
		major = yes
		potential = {
			has_reform = iqta
			NOT = { has_dlc = "Dharma" }
		}
		allow = {
			adm_tech = 12
			legitimacy = 90
			adm_power = 100
			has_institution = feudalism
		}
		effect = {
			set_legacy_government = administrative_monarchy
			set_country_flag = reformed_iqta
			add_adm_power = -100
		}
		ai_will_do = {
			factor = 1
		}
	}
	
	elevate_bishopric = {
		major = yes
		potential = {
			government = theocracy
			is_part_of_hre = yes
			NOT = { government_rank = 2 }
			NOT = { has_reform = monastic_order_reform }
			religion = catholic	#anbennar - to remove this
		}
		allow = {
			is_subject = no
			is_elector = yes
			OR = {
				NOT = { religion = catholic }
				papal_influence = 25
			}
		}
		effect = {
			set_government_rank = 2
			add_papal_influence = -25
		}
		ai_will_do = {
			factor = 1
		}
	}
	
	#secularization_of_protestant_theocracy = {
	#	major = yes
	#	potential = {
	#		NOT = { has_dlc = "Dharma" }
	#		government = theocracy
	#		OR = {
	#			religion = protestant
	#			religion = reformed
	#		}
	#		NOT = {
	#			tag = TEU
	#			owns_core_province = 41 #Königsberg
	#		}
	#		NOT = {
	#			tag = LIV
	#			owns_core_province = 39 #Courland
	#			owns_core_province = 1935 #Semigallia
	#		}
	#	}
	#	allow = {
	#		stability = 2
	#		adm_tech = 12
	#		custom_trigger_tooltip = {
	#			tooltip = recently_changed_government_flag_tooltip
	#			OR = {
	#				NOT = { has_country_flag = recently_changed_government_flag }
	#				had_country_flag = { flag = recently_changed_government_flag days = 9125 }
	#			}
	#		}
	#	}
	#	effect = {
	#		if = {
	#			limit = { has_heir = yes }
	#			kill_heir = yes
	#		}
	#		every_neighbor_country = {
	#			limit = {
	#				government = monarchy
	#				ROOT = { has_reform = monastic_order_government }
	#			}
	#			add_opinion = { who = ROOT modifier = secularized_monastic_order }
	#		}
	#		every_neighbor_country = {
	#			limit = {
	#				government = monarchy
	#				ROOT = { NOT = { has_reform = monastic_order_government }}
	#			}
	#			add_opinion = { who = ROOT modifier = secularized_bishopric }
	#		}
	#		if = {
	#			limit = {
	#				OR = {
	#					is_free_or_tributary_trigger = yes
	#					NOT = { total_development = 300 }
	#				}
	#			}
	#			set_government_rank = 1
	#		}
	#		change_government = monarchy
	#		set_legacy_government = administrative_monarchy
	#		add_stability = -1
	#		set_country_flag = recently_changed_government_flag
	#	}
	#	ai_will_do = {
	#		factor = 1
	#	}
	#}
	
	#secularization_of_christian_theocracy = {
	#	major = yes
	#	potential = {
	#		NOT = { has_dlc = "Dharma" }
	#		government = theocracy
	#		religion_group = christian
	#		NOT = { religion = protestant }
	#		NOT = { religion = reformed }
	#		NOT = { has_reform = papal_government }
	#	}
	#	allow = {
	#		stability = 2
	#		adm_tech = 20
	#		custom_trigger_tooltip = {
	#			tooltip = recently_changed_government_flag_tooltip
	#			OR = {
	#				NOT = { has_country_flag = recently_changed_government_flag }
	#				had_country_flag = { flag = recently_changed_government_flag days = 9125 }
	#			}
	#		}
	#	}
	#	effect = {
	#		every_neighbor_country = {
	#			limit = {
	#				government = monarchy
	#				ROOT = { has_reform = monastic_order_government }
	#			}
	#			add_opinion = { who = ROOT modifier = secularized_monastic_order }
	#		}
	#		every_neighbor_country = {
	#			limit = {
	#				government = monarchy
	#				ROOT = { NOT = { has_reform = monastic_order_government }}
	#			}
	#			add_opinion = { who = ROOT modifier = secularized_bishopric }
	#		}
	#		if = {
	#			limit = {
	#				religion = catholic
	#			}
	#			PAP = {
	#				add_opinion = {
	#					who = ROOT
	#					modifier = opinion_displeased
	#				}
	#			}
	#		}
	#		if = {
	#			limit = {
	#				OR = {
	#					NOT = { total_development = 300 }
	#					is_subject_other_than_tributary_trigger = yes
	#				}
	#			}
	#			set_government_rank = 1
	#		}
	#		change_government = monarchy
	#		set_legacy_government = administrative_monarchy
	#		add_stability = -1
	#		if = {
	#			limit = { has_heir = yes }
	#			kill_heir = yes
	#		}
	#		set_country_flag = recently_changed_government_flag
	#	}
	#	ai_will_do = {
	#		factor = 0
	#	}
	#}
	
	reform_into_iqta = {
		major = yes
		potential = {
			NOT = { has_dlc = "Dharma" }
			religion_group = muslim
			government = monarchy
			NOT = { has_reform = principality }
			NOT = { has_reform = tsardom }
			NOT = { has_reform = iqta }
			NOT = { has_reform = ottoman_government }
			NOT = { has_reform = feudal_theocracy }
			NOT = { has_reform = mamluk_government }
			NOT = { has_reform = english_monarchy }
			NOT = { has_reform = elective_monarchy }
			NOT = { has_reform = celestial_empire }
			NOT = { has_reform = daimyo }
			NOT = { has_reform = shogunate }
			NOT = { has_reform = revolutionary_empire }
			NOT = { has_reform = indian_sultanate_reform }
			NOT = { has_country_flag = reformed_to_iqta }
			
			#Anbennar
			NOT = { has_reform = raja_reform  }
			NOT = { has_reform = prabhi_reform }
			NOT = { has_reform = indep_prabhi_reform }
			NOT = { has_reform = wulin }
			NOT = { has_reform = xiaken }
			NOT = { has_reform = indep_xiaken }
			NOT = { has_reform = jadd_nobility }
		}
		allow = {
			religion_group = muslim #for clarity
			has_institution = feudalism
			stability = 1
			legitimacy = 90
			adm_power = 100
		}
		effect = {
			set_country_flag = reformed_to_iqta
			add_government_reform = iqta
			add_adm_power = -100
		}
		ai_will_do = {
			factor = 1
		}
	}
	
	become_indian_sultanate = {
		major = yes
		potential = {
			NOT = { has_dlc = "Dharma" }
			technology_group = indian
			religion_group = muslim
			government = monarchy
			NOT = { has_reform = indian_sultanate_reform }
			NOT = { has_reform = principality }
			NOT = { has_reform = tsardom }
			NOT = { has_reform = iqta }
			NOT = { has_reform = ottoman_government }
			NOT = { has_reform = feudal_theocracy }
			NOT = { has_reform = mamluk_government }
			NOT = { has_reform = english_monarchy }
			NOT = { has_reform = elective_monarchy }
			NOT = { has_reform = celestial_empire }
			NOT = { has_reform = daimyo }
			NOT = { has_reform = shogunate }
			NOT = { has_reform = revolutionary_empire }
			NOT = { has_country_flag = reformed_into_indian_sultanate }
			
			#Anbennar
			NOT = { has_reform = raja_reform  }
			NOT = { has_reform = prabhi_reform }
			NOT = { has_reform = indep_prabhi_reform }
			NOT = { has_reform = wulin }
			NOT = { has_reform = xiaken }
			NOT = { has_reform = indep_xiaken }
			NOT = { has_reform = jadd_nobility }
		}
		allow = {
			has_institution = feudalism
			stability = 1
			adm_power = 100
		}
		effect = {
			set_legacy_government = indian_sultanate_legacy
			add_adm_power = -100
			set_country_flag = reformed_into_indian_sultanate
		}
	}

	become_russian_principality = {
		major = yes
		potential = {
			NOT = { has_dlc = "Dharma" }
			culture_group = east_slavic
			NOT = { has_reform = principality_legacy }
			NOT = { has_reform = iqta }
			NOT = { has_reform = feudal_theocracy }
			NOT = { has_reform = english_monarchy }
			NOT = { has_reform = elective_monarchy }
			NOT = { has_reform = celestial_empire }
			NOT = { has_reform = daimyo }
			NOT = { has_reform = shogunate }
			NOT = { has_reform = revolutionary_empire }
			NOT = { government_rank = 3 }
			government = monarchy
			
			#Anbennar
			NOT = { has_reform = raja_reform  }
			NOT = { has_reform = prabhi_reform }
			NOT = { has_reform = indep_prabhi_reform }
			NOT = { has_reform = wulin }
			NOT = { has_reform = xiaken }
			NOT = { has_reform = indep_xiaken }
		}
		allow = {
			NOT = { government_rank = 3 }
			religion = orthodox
			culture_group = east_slavic
			stability = 1
			legitimacy = 90
		}
		effect = {
			set_government_rank = 2
			set_legacy_government = principality_legacy
		}
		ai_will_do = {
			factor = 1
			modifier = {
				factor = 0
				government_rank = 2
			}
		}
	}
	
	custom_tsardom = {
		major = yes
		potential = {
			is_playing_custom_nation = yes
			ai = no
			is_colonial_nation = no
			is_former_colonial_nation = no
			has_reform = principality
			NOT = { has_dlc = "Dharma" }
		}
		allow = {
			adm_tech = 10
			is_subject = no
			is_nomad = no
			is_at_war = no
			total_development = 1000			
		}
		effect = {
			remove_non_electors_emperors_from_empire_effect = yes
			if = {
				limit = { NOT = { government = monarchy } }
				change_government = monarchy
			}
			set_legacy_government = tsardom_legacy
			set_government_rank = 3
			add_prestige = 25
		}
		ai_will_do = {
			factor = 0
		}
	}
	
}
