
country_decisions = {

	reallow_ravelian_society_formation = {
		potential = {
			has_country_flag = no_ravelian_society
			NOT = {
				is_religion_enabled = ravelian
			}
		}
		effect = {
			clr_country_flag = no_ravelian_society
		}
		ai_will_do = {
			factor = 0
		}
	}


}