
country_decisions = {
	establish_lightbringers = {	
		potential = {
			religion = the_jadd
			NOT = { has_country_modifier = jaddari_lightbringers }
		}
		
		allow = {
			adm_power = 100
			adm_tech = 4
			temple = 1
		}
	
		effect = {
			add_adm_power = -100
			add_country_modifier = {
				name = jaddari_lightbringers
				duration = -1
			}
		}
		ai_will_do = {
			factor = 1
		}
	}
	
	establish_the_temple_of_azka_sur = {	
		potential = {
			NOT = { 643 = { has_province_modifier = jaddari_grand_temple } }
			religion = the_jadd
		}
		
		allow = {
			owns_core_province = 643
			643 = {
				has_tax_building_trigger = yes
				religion = the_jadd
			}
			dip_power = 100
			adm_power = 100
			treasury = 200
		}
	
		effect = {
			add_dip_power = -100
			add_adm_power = -100
			add_treasury = -200
			643 = {
				add_province_triggered_modifier = jaddari_grand_temple
				hidden_effect = { add_permanent_province_modifier = { name = jaddari_holy_site duration = -1 } }
			}
			tooltip = {
				643 = {
					add_permanent_province_modifier = {
						name = jaddari_grand_temple_dummy
						duration = -1
					}
				}
			}
		}
		ai_will_do = {
			factor = 1
		}
	}
	
	the_jadd_is_the_true_faith = {	
		potential = {
			religion = the_jadd
			NOT = { has_global_flag = the_jadd_is_the_true_faith }
		}
		
		allow = {
			is_defender_of_faith = yes
			bulwar_superregion = {
				type = all
				religion = the_jadd
			}
		}

		provinces_to_highlight = {
			OR = {
				superregion = bulwar_superregion
			}
			NOT = { religion = the_jadd }
		}
	
		effect = {
			every_country = {
				limit = { religion = the_jadd }
				add_country_modifier = {
					name = jaddari_the_true_faith
					duration = -1
				}
			}
			set_global_flag = the_jadd_is_the_true_faith
		}
		ai_will_do = {
			factor = 1
		}
	}
	
	the_jadd_reform_the_sun_cult = {
		potential = {
			religion = the_jadd
			NOT = {
				tag = F46
				was_tag = F46
			}
			NOT = { has_global_flag = reformed_the_sun_cult }
		}
		
		allow = {
			601 = { owned_by = ROOT }
			dip_power = 400
			has_global_modifier_value = {
				which = global_missionary_strength
				value = 0.1
			}
			num_of_owned_provinces_with = {
				value = 50
				religion = the_jadd
			}
		}
	
		effect = {
			add_dip_power = -400
			custom_tooltip = jaddari_reform_the_cult_tooltip
			hidden_effect = {
				every_country = {
					limit = {
						religion = bulwari_sun_cult
					}
					country_event = { 
						id = jaddari_missions.1
						days = 0
						random = 365
					}
				}
				every_province = {
					limit = { religion = bulwari_sun_cult }
					if = {
						limit = { culture = sun_elf }
						random_list = {
							80 = {}
							20 = { change_religion = the_jadd }
						}					
					}
					else = {
						random_list = {
							40 = {}
							60 = { change_religion = the_jadd }
						}					
					}
				}
				set_global_flag = reformed_the_sun_cult
			}
		}
		ai_will_do = {
			factor = 1
		}
	}
}
