namespace = great_dookan_events

#Invoke warrior ancestors
country_event = {
	id = great_dookan_events.1
	title = great_dookan_events.1.t
	desc = great_dookan_events.1.d
	picture = BATTLE_eventPicture
	
	is_triggered_only = yes
	major = no
	
	option = {
		name = great_dookan_events.1.a
		
		add_country_modifier = {
			name = "dookan_reconnected_with_past_lives"
			duration = 75
		}
	}
}

#Purge the weak
country_event = {
	id = great_dookan_events.2
	title = great_dookan_events.2.t
	desc = great_dookan_events.2.d
	picture = FAMINE_eventPicture
	
	is_triggered_only = yes
	major = no
	
	option = {
		name = great_dookan_events.2.a
		
		random_owned_province = {
			limit = {
				OR = {
					has_owner_religion = no
					has_owner_religion = no
				}
			}
			add_devastation = 30
			change_culture = ROOT
			change_religion = ROOT
		}
	}
}

#Gather a great host
country_event = {
	id = great_dookan_events.3
	title = great_dookan_events.3.t
	desc = great_dookan_events.3.d
	picture = MILITARY_CAMP_eventPicture
	
	is_triggered_only = yes
	major = no
	
	option = {
		name = great_dookan_events.3.a
		
		add_yearly_manpower = 5
		add_army_professionalism = -0.025
		add_country_modifier = {
			name = dookan_gather_great_host
			duration = 730
		}
	}
}

#Glorious looting
country_event = {
	id = great_dookan_events.4
	title = great_dookan_events.4.t
	desc = great_dookan_events.4.d
	picture = COUNTRY_COLLAPSE_eventPicture
	
	is_triggered_only = yes
	major = no
	
	option = {
		name = great_dookan_events.4.a
		
		random_province = {
			limit = {
				controlled_by = ROOT
				NOT = { owned_by = ROOT}
			}
			random_list = {
				1 = { add_base_tax = -1 }
				1 = { add_base_production = -1 }
				1 = { add_base_manpower = -1 }
			}
			random_list = {
				1 = { add_base_tax = -1 }
				1 = { add_base_production = -1 }
				1 = { add_base_manpower = -1 }
			}
			add_devastation = 50
		}
		
		capital_scope = {
			random_list = {
				1 = { add_base_tax = 1 }
				1 = { add_base_production = 1 }
				1 = { add_base_manpower = 1 }
			}
		}
	}
}

#anoint slave herd
country_event = {
	id = great_dookan_events.5
	title = great_dookan_events.5.t
	desc = great_dookan_events.5.d
	picture = FAMINE_eventPicture
	
	is_triggered_only = yes
	major = no
	
	option = {
		name = great_dookan_events.5.a
		
		random_owned_province = {
			limit = { trade_goods = slaves }
			random_list = {
				30 = { add_base_tax = 1 }
				40 = { add_base_production = 1 }
				30 = { add_base_manpower = 1 }
			}
			add_province_modifier = {
				name = "dookan_anointed_slave_herd"
				duration = 365
			}
		}
	}
}

# Omen of Strength
country_event = {
	id = great_dookan_events.6
	title = great_dookan_events.6.t
	desc = great_dookan_events.6.d
	picture = FAMINE_eventPicture
	
	is_triggered_only = yes
	major = no
	
	option = {
		name = great_dookan_events.6.a
		
		add_country_modifier = {
			name = "dookan_omen_of_strength"	#+20% shock damage, +10% dev cost, -10% production efficiency for 5 years
			duration = 1825
		}
	}
}

# Omen of Peace
country_event = {
	id = great_dookan_events.7
	title = great_dookan_events.7.t
	desc = great_dookan_events.7.d
	picture = FAMINE_eventPicture
	
	is_triggered_only = yes
	major = no
	
	option = {
		name = great_dookan_events.7.a
		
		random_owned_province = {
			limit = {
				culture = ROOT
			}
			random_list = {
				25 = { add_base_tax = 1 }
				25 = { add_base_production = 1 }
				50 = { add_base_manpower = 1 }
			}
		}
		add_country_modifier = {
			name = "dookan_omen_of_peace"	#+20% tax, -20% manpower, +10% global goods produced, -1 prestige for 5 years
			duration = 1825
		}
	}
}

# Omen of Wisdom
country_event = {
	id = great_dookan_events.8
	title = great_dookan_events.8.t
	desc = great_dookan_events.8.d
	picture = FAMINE_eventPicture
	
	is_triggered_only = yes
	major = no
	
	option = {
		name = great_dookan_events.8.a
		
		random_list = {
			33 = {
				add_adm_power = 100
				add_country_modifier = {
					name = "dookan_omen_of_wisdom_adm"
					duration = 1825
				}
			}
			33 = {
				add_dip_power = 100
				add_country_modifier = {
					name = "dookan_omen_of_wisdom_dip"
					duration = 1825
				}
			}
			34 = {
				add_mil_power = 100
				add_country_modifier = {
					name = "dookan_omen_of_wisdom_mil"
					duration = 1825
				}
			}
		}
	}
}

# Omen of Destiny
country_event = {
	id = great_dookan_events.9
	title = great_dookan_events.9.t
	desc = great_dookan_events.9.d
	picture = FAMINE_eventPicture
	
	is_triggered_only = yes
	major = no
	
	option = {
		name = great_dookan_events.9.a
		
		create_general = {
			tradition = 80
		}
		add_country_modifier = {
			name = "dookan_omen_of_destiny"
			duration = 1825
		}

	}
}

# Omen of Calamity
country_event = {
	id = great_dookan_events.10
	title = great_dookan_events.10.t
	desc = great_dookan_events.10.d
	picture = FAMINE_eventPicture
	
	is_triggered_only = yes
	major = no

	trigger = {
		ai = no
	}
	
	option = {
		name = great_dookan_events.10.a
		
		add_country_modifier = {
			name = "dookan_omen_of_calamity"	#+16 global unrest, -10% morale, -10% manpower recovery, -25% church power, +10% idea cost for 5 years
			duration = 1825
		}
		set_country_flag = dookan_is_angry_flag
	}
	
	option = {
		name = great_dookan_events.10.b
		
		add_adm_power = -100
		add_dip_power = -100
		add_mil_power = -100
		add_country_modifier = {
			name = "dookan_no_omen"		#-1 prestige, -90% church power for 5 years
			duration = 730
		}
	}
}

# Shake the Earth!
country_event = {
	id = great_dookan_events.11
	title = great_dookan_events.11.t
	desc = great_dookan_events.11.d
	picture = FAMINE_eventPicture
	
	is_triggered_only = yes
	major = no
	
	option = {
		name = great_dookan_events.11.a
		
		add_country_modifier = {
			name = "dookan_shake_the_earth"	#+50% siege ability
			duration = 90
		}
	}
}

# Dookan's Guidance
country_event = {
	id = great_dookan_events.12
	title = great_dookan_events.12.t
	desc = great_dookan_events.12.d
	picture = FAMINE_eventPicture
	
	is_triggered_only = yes
	major = no
	
	option = {
		name = great_dookan_events.12.a
		ai_chance = {
			factor = 100
			modifier = {
				factor = 0
				is_at_war = no
			}
		}
		add_army_tradition = 25
		add_country_modifier = {
			name = "dookans_guidance_war"	#+100% army tradition from battles, +15% morale, +10% shock damage, -10% shock damage received for 5 years
			duration = 1825
		}
	}
	
	option = {
		name = great_dookan_events.12.b
		ai_chance = {
			factor = 100
			modifier = {
				factor = 0
				is_at_war = yes
			}
		}
		if = {
			limit = { is_at_war = yes }
			add_stability = -3
		}
		if = {
			limit = { is_at_war = no }
			add_stability_or_adm_power = yes
		}
		add_country_modifier = {
			name = "dookans_guidance_peace"	#-25% stability cost, -20% dev cost, +10% goods produced for 5 years
			duration = 1825
		}
	}
}

# Dookan's Mercy
country_event = {
	id = great_dookan_events.13
	title = great_dookan_events.13.t
	desc = great_dookan_events.13.d
	picture = FAMINE_eventPicture
	
	trigger = {
		religion = old_dookan
		NOT = { has_country_modifier = dookan_omen_of_calamity }
		had_country_flag = {
			flag = dookan_is_angry_flag
			days = 1825
		}
	}

	mean_time_to_happen = {
		months = 1
	}
	
	option = {
		name = great_dookan_events.13.a
		
		add_adm_power = 100
		add_dip_power = 100
		add_mil_power = 100
		add_yearly_manpower = 1
		add_country_modifier = {
			name = "dookans_mercy"	#+100% tax, +100% manpower recovery, -2.5% all power cost for 1 year
			duration = 365
		}
		clr_country_flag = dookan_is_angry_flag
	}
}

# Omen of Calamity - Revolt!
country_event = {
	id = great_dookan_events.14
	title = great_dookan_events.14.t
	desc = great_dookan_events.14.d
	picture = FAMINE_eventPicture
	
	trigger = {
		has_country_modifier = dookan_omen_of_calamity
	}

	mean_time_to_happen = {
		months = 12
	}
	
	option = {
		name = great_dookan_events.14.a
		random_list = {
			50 = {
				random_owned_province = {
					spawn_rebels = {
						type = old_dookan_rebels
						size = 2
					}
				}
			}
			50 = {
				random_owned_province = {
					spawn_rebels = {
						type = old_dookan_rebels
						size = 1
					}
				}
			}
		}
	}
}