namespace = flavour_reuyel

#Special Election
country_event = {
    id = flavour_reuyel.1
    title = flavour_reuyel.1.t
    desc = flavour_reuyel.1.d
    picture = ELECTION_REPUBLICAN_eventPicture
    
    is_triggered_only = yes
    
    trigger = {
        has_reform = reuyeli_republic
        NOT = { has_country_flag = in_reuyel_election }
    }
    
    immediate = {
        hidden_effect = {
            set_country_flag = in_reuyel_election
			U18 = { save_event_target_as = reuyel_origin }
			set_saved_name = {
				key = bahari_name
				type = advisor
				scope = event_target:reuyel_origin
			}
			F17 = { save_event_target_as = crathanor_origin }
			set_saved_name = {
				key = crathanori_name
				type = advisor
				scope = event_target:crathanor_origin
			}
			F16 = { save_event_target_as = ourdia_origin }
			set_saved_name = {
				key = ourdi_name
				type = advisor
				scope = event_target:ourdia_origin
			}
			F15 = { save_event_target_as = marble_head_origin }
			set_saved_name = {
				key = goblin_name
				type = advisor
				scope = event_target:marble_head_origin
			}
			F37 = { save_event_target_as = evran_origin }
			set_saved_name = {
				key = sun_elf_name
				type = advisor
				scope = event_target:evran_origin
			}
			F23 = { save_event_target_as = tungr_origin }
			set_saved_name = {
				key = dwarf_name
				type = advisor
				scope = event_target:tungr_origin
			}
			F27 = { save_event_target_as = harpylen_origin }
			set_saved_name = {
				key = harpy_name
				type = advisor
				scope = event_target:harpylen_origin
			}
        }
    }
	
	after = {
		hidden_effect = {
			clear_saved_name = bahari_name
			clear_saved_name = crathanori_name
			clear_saved_name = ourdi_name
			clear_saved_name = goblin_name
			clear_saved_name = sun_elf_name
			clear_saved_name = dwarf_name
			clear_saved_name = harpy_name
            clr_country_flag = in_reuyel_election
        }
	}
	
	#Keep Current Ruler
	option = {
		name = flavour_reuyel.1.a
		trigger = { NOT = { months_of_ruling = 234 } } #Can't re-elect rulers after 20 years to prevent reelecting the same long lived dude
		ai_chance = { 
			factor = 60
			modifier = {
				factor = 0
				NOT = { republican_tradition = 25 }
			}	
			modifier = {
				factor = 0.5
				NOT = { republican_tradition = 50 }
			}				
			modifier = {
				factor = 0.5
				NOT = { republican_tradition = 75 }
			}	
			modifier = {
				factor = 2.0
				republican_tradition = 90
			}		
			
			#Anbennar
			modifier = {
				factor = 2.0
				ruler_has_personality = mage_personality
			}	
		}
		custom_tooltip = remains_ruler
		change_adm = 1
		change_dip = 1
		change_mil = 1
		if = {
			limit = {
				is_tribal = no 
				government = republic
				NOT = { republican_tradition = 20 }				
				NOT = { is_revolutionary_republic_trigger = yes }
				has_dlc = "Res Publica"
			}
			add_government_reform = presidential_despot_reform	
		}
		add_scaled_republican_tradition = -10
		random_list = {
			10 = {
				add_adm_power = 50
			}
			10 = {
				add_dip_power = 50
			}
			10 = {
				add_mil_power = 50
			}
		}
	}
	
	#Bahari Candidate
	option = {
		name = flavour_reuyel.1.b
		trigger = { accepted_culture = bahari }
		ai_chance = { factor = 20 }
		define_ruler = {
			name = bahari_name
			min_age = 30
			max_age = 50
			adm = 1
			dip = 1
			mil = 1
			max_random_adm = 3
			max_random_dip = 3
			max_random_mil = 3
			culture = bahari
		}
		small_increase_of_human_tolerance_effect = yes
	}
	
	#Crathanori Candidate
	option = {
		name = flavour_reuyel.1.c
		trigger = { accepted_culture = crathanori }
		ai_chance = { factor = 20 }
		define_ruler = {
			name = crathanori_name
			min_age = 30
			max_age = 50
			adm = 1
			dip = 1
			mil = 1
			max_random_adm = 3
			max_random_dip = 3
			max_random_mil = 3
			culture = crathanori
		}
		small_increase_of_human_tolerance_effect = yes
	}
	
	#Ourdi Candidate
	option = {
		name = flavour_reuyel.1.e
		trigger = { accepted_culture = ourdi }
		ai_chance = { factor = 20 }
		define_ruler = {
			name = ourdi_name
			min_age = 30
			max_age = 50
			adm = 1
			dip = 1
			mil = 1
			max_random_adm = 3
			max_random_dip = 3
			max_random_mil = 3
			culture = ourdi
		}
		small_increase_of_human_tolerance_effect = yes
	}
	
	#Goblin Candidate
	option = {
		name = flavour_reuyel.1.f
		trigger = { 
			accepted_culture = exodus_goblin
			religion = the_jadd
		}
		ai_chance = { factor = 20 }
		define_ruler = {
			name = goblin_name
			min_age = 30
			max_age = 50
			adm = 1
			dip = 1
			mil = 1
			max_random_adm = 3
			max_random_dip = 3
			max_random_mil = 3
			culture = exodus_goblin
		}
		small_increase_of_goblin_tolerance_effect = yes
	}
	
	#Sun Elf Candidate
	option = {
		name = flavour_reuyel.1.g
		trigger = { accepted_culture = sun_elf }
		ai_chance = { factor = 20 }
		define_ruler = {
			name = sun_elf_name
			min_age = 30
			max_age = 50
			adm = 1
			dip = 1
			mil = 1
			max_random_adm = 3
			max_random_dip = 3
			max_random_mil = 3
			culture = sun_elf
		}
		hidden_effect = { add_ruler_personality = immortal_personality }
		small_increase_of_elven_tolerance_effect = yes
	}
	
	#Dwarf Candidate
	option = {
		name = flavour_reuyel.1.h
		trigger = {
			accepted_culture = copper_dwarf
			religion = the_jadd
		}
		ai_chance = { factor = 20 }
		define_ruler = {
			name = dwarf_name
			min_age = 30
			max_age = 50
			adm = 1
			dip = 1
			mil = 1
			max_random_adm = 3
			max_random_dip = 3
			max_random_mil = 3
			culture = copper_dwarf
		}
		hidden_effect = { add_ruler_personality = immortal_personality }
		small_increase_of_dwarven_tolerance_effect = yes
	}
	
	#Harpy Candidate
	option = {
		name = flavour_reuyel.1.i
		trigger = {
			accepted_culture = firanyan_harpy
			religion = the_jadd
		}
		ai_chance = { factor = 20 }
		define_ruler = {
			name = harpy_name
			min_age = 30
			max_age = 50
			adm = 1
			dip = 1
			mil = 1
			max_random_adm = 3
			max_random_dip = 3
			max_random_mil = 3
			culture = firanyan_harpy
			female = yes
		}
		small_increase_of_harpy_tolerance_effect = yes
	}
}

#Death elections
country_event = {
    id = flavour_reuyel.2
    title = flavour_reuyel.2.t
    desc = flavour_reuyel.2.d
    picture = ELECTION_REPUBLICAN_eventPicture
    
    is_triggered_only = yes
    
    trigger = {
        has_reform = reuyeli_republic
        NOT = { has_country_flag = in_reuyel_election }
    }
    
    immediate = {
        hidden_effect = {
            set_country_flag = in_reuyel_election
			U18 = { save_event_target_as = reuyel_origin }
			set_saved_name = {
				key = bahari_name
				type = advisor
				scope = event_target:reuyel_origin
			}
			F17 = { save_event_target_as = crathanor_origin }
			set_saved_name = {
				key = crathanori_name
				type = advisor
				scope = event_target:crathanor_origin
			}
			F16 = { save_event_target_as = ourdia_origin }
			set_saved_name = {
				key = ourdi_name
				type = advisor
				scope = event_target:ourdia_origin
			}
			F15 = { save_event_target_as = marble_head_origin }
			set_saved_name = {
				key = goblin_name
				type = advisor
				scope = event_target:marble_head_origin
			}
			F37 = { save_event_target_as = evran_origin }
			set_saved_name = {
				key = sun_elf_name
				type = advisor
				scope = event_target:evran_origin
			}
			F23 = { save_event_target_as = tungr_origin }
			set_saved_name = {
				key = dwarf_name
				type = advisor
				scope = event_target:tungr_origin
			}
			F27 = { save_event_target_as = harpylen_origin }
			set_saved_name = {
				key = harpy_name
				type = advisor
				scope = event_target:harpylen_origin
			}
        }
    }
	
	after = {
		hidden_effect = {
			clear_saved_name = bahari_name
			clear_saved_name = crathanori_name
			clear_saved_name = ourdi_name
			clear_saved_name = goblin_name
			clear_saved_name = sun_elf_name
			clear_saved_name = dwarf_name
			clear_saved_name = harpy_name
            clr_country_flag = in_reuyel_election
        }
	}
	
	option = {
		name = flavour_reuyel.2.a
		trigger = { accepted_culture = bahari }
		ai_chance = { factor = 20 }
		define_ruler = {
			name = bahari_name
			min_age = 30
			max_age = 50
			adm = 1
			dip = 1
			mil = 1
			max_random_adm = 3
			max_random_dip = 3
			max_random_mil = 3
			culture = bahari
		}
		small_increase_of_human_tolerance_effect = yes
	}
	
	#Crathanori Candidate
	option = {
		name = flavour_reuyel.2.b
		trigger = { accepted_culture = crathanori }
		ai_chance = { factor = 20 }
		define_ruler = {
			name = crathanori_name
			min_age = 30
			max_age = 50
			adm = 1
			dip = 1
			mil = 1
			max_random_adm = 3
			max_random_dip = 3
			max_random_mil = 3
			culture = crathanori
		}
		small_increase_of_human_tolerance_effect = yes
	}
	
	#Ourdi Candidate
	option = {
		name = flavour_reuyel.2.c
		trigger = { accepted_culture = ourdi }
		ai_chance = { factor = 20 }
		define_ruler = {
			name = ourdi_name
			min_age = 30
			max_age = 50
			adm = 1
			dip = 1
			mil = 1
			max_random_adm = 3
			max_random_dip = 3
			max_random_mil = 3
			culture = ourdi
		}
		small_increase_of_human_tolerance_effect = yes
	}
	
	#Goblin Candidate
	option = {
		name = flavour_reuyel.2.e
		trigger = { 
			accepted_culture = exodus_goblin
			religion = the_jadd
		}
		ai_chance = { factor = 20 }
		define_ruler = {
			name = goblin_name
			min_age = 30
			max_age = 50
			adm = 1
			dip = 1
			mil = 1
			max_random_adm = 3
			max_random_dip = 3
			max_random_mil = 3
			culture = exodus_goblin
		}
		small_increase_of_goblin_tolerance_effect = yes
	}
	
	#Sun Elf Candidate
	option = {
		name = flavour_reuyel.2.f
		trigger = { accepted_culture = sun_elf }
		ai_chance = { factor = 20 }
		define_ruler = {
			name = sun_elf_name
			min_age = 30
			max_age = 50
			adm = 1
			dip = 1
			mil = 1
			max_random_adm = 3
			max_random_dip = 3
			max_random_mil = 3
			culture = sun_elf
		}
		hidden_effect = { add_ruler_personality = immortal_personality }
		small_increase_of_elven_tolerance_effect = yes
	}
	
	#Dwarf Candidate
	option = {
		name = flavour_reuyel.2.g
		trigger = {
			accepted_culture = copper_dwarf
			religion = the_jadd
		}
		ai_chance = { factor = 20 }
		define_ruler = {
			name = dwarf_name
			min_age = 30
			max_age = 50
			adm = 1
			dip = 1
			mil = 1
			max_random_adm = 3
			max_random_dip = 3
			max_random_mil = 3
			culture = copper_dwarf
		}
		hidden_effect = { add_ruler_personality = immortal_personality }
		small_increase_of_dwarven_tolerance_effect = yes
	}
	
	#Harpy Candidate
	option = {
		name = flavour_reuyel.2.h
		trigger = {
			accepted_culture = firanyan_harpy
			religion = the_jadd
		}
		ai_chance = { factor = 20 }
		define_ruler = {
			name = harpy_name
			min_age = 30
			max_age = 50
			adm = 1
			dip = 1
			mil = 1
			max_random_adm = 3
			max_random_dip = 3
			max_random_mil = 3
			culture = firanyan_harpy
			female = yes
		}
		small_increase_of_harpy_tolerance_effect = yes
	}
}

#This event defines what mission tree U18 gets
country_event = {
	id =  flavour_reuyel.3
	title = flavour_reuyel.3.t
	desc = flavour_reuyel.3.d
	picture = NOBLE_ESTATE_eventPicture
	
	fire_only_once = yes
	
	trigger = { 
		tag = U18
	}
	mean_time_to_happen = {
		days = 180
	}
	
	#Jadd option
	option = {
		name = flavour_reuyel.3.a
		ai_chance = {
			factor = 0.33
			modifier = {
				factor = 2
				any_enemy_country = {
					primary_culture = sun_elf
				}
			}
		}
		define_general = {
			name = "Camnaril of the Sands"
			shock = 5
			fire = 2
			manuever = 5
			siege = 3
			trait = hardy_warrior_personality
		}
		set_country_flag = reuyel_jadd
		
		every_country = {
			limit = { religion = the_jadd }
			add_opinion = { who = ROOT modifier = the_jadd_converted_to_jadd }
		}
		every_country = {
			limit = { religion = bulwari_sun_cult }
			add_opinion = { who = ROOT modifier = bulwari_converted_to_jadd }
		}
		swap_non_generic_missions = yes
	}
	#OSC option
	option = {
		name = flavour_reuyel.3.b
		ai_chance = {
			factor = 0.33
			modifier = {
				factor = 2
				any_enemy_country = {
					primary_culture = sun_elf
				}
			}
			modifier = {
				factor = 2
				any_enemy_country = {
					primary_culture = exodus_goblin
				}
			}
		}
		define_advisor = {
			type = theologian
				name = "Sepeh of Kuzak"
				skill = 2
				discount = yes
				culture = bahari
				religion = old_bulwari_sun_cult
			}
		set_country_flag = reuyel_osc
		every_country = {
			limit = { religion = old_bulwari_sun_cult }
			add_opinion = { who = ROOT modifier = osc_converted_to_jadd }
		}
		every_country = {
			limit = { religion = bulwari_sun_cult }
			add_opinion = { who = ROOT modifier = bulwari_converted_to_jadd }
		}
		swap_non_generic_missions = yes
	}
	#NSC option
	option = {
		name = flavour_reuyel.3.c
		ai_chance = {
			factor = 0.33
			modifier = {
				factor = 2
				any_ally = {
					primary_culture = sun_elf
				}
			}
		}
		set_country_flag = reuyel_nsc
		every_country = {
			limit = { religion = bulwari_sun_cult }
			add_opinion = { who = ROOT modifier = refused_conversion_to_jadd }
		}
		swap_non_generic_missions = yes
	}
}

#OSC 522 conversion event
country_event = {
	id =  flavour_reuyel.4
	title = flavour_reuyel.4.t
	desc = flavour_reuyel.4.d
	picture = NOBLE_ESTATE_eventPicture
	is_triggered_only = yes
	fire_only_once = yes
	trigger = { 
		tag = U18
	}
	
	option = {
		name = flavour_reuyel.4.a
		ai_chance = {
			factor = 1
		}
		522 = {
			change_religion = old_bulwari_sun_cult
		}
		add_dip_power = -100
	}
}

#OSC country conversion
country_event = {
	id =  flavour_reuyel.5
	title = flavour_reuyel.5.t
	desc = flavour_reuyel.5.d
	picture = NOBLE_ESTATE_eventPicture
	is_triggered_only = yes
	fire_only_once = yes
	
	trigger = { 
		tag = U18
	}
	option = {
		name = flavour_reuyel.5.a
		ai_chance = {
			factor = 1
		}
		522 = {
			add_province_modifier = {
				name = U18_temple_of_temples
				duration = -1
			}
		}
		change_religion = old_bulwari_sun_cult
		add_treasury = -200
	}		
}		
#Jadd island conversion
country_event = {
	id =  flavour_reuyel.6
	title = flavour_reuyel.6.t
	desc = flavour_reuyel.6.d
	picture = NOBLE_ESTATE_eventPicture
	is_triggered_only = yes
	fire_only_once = yes
	
	trigger = { 
		tag = U18
	}

	mean_time_to_happen = {
		days = 1
	}
	
	
	option = {
		name = flavour_reuyel.6.a
		ai_chance = {
			factor = 1
		}
		581 = {
			change_religion = the_jadd
			add_elven_minority_size_effect = yes
		}
		define_advisor = {
			type = theologian
				name = "Dorendor of edesukeru"
				skill = 2
				discount = yes
				culture = desert_elf
				religion = the_jadd
		}
		add_treasury = -100
	}
}

#Jadd country conversion
country_event = {
	id =  flavour_reuyel.7
	title = flavour_reuyel.7.t
	desc = flavour_reuyel.7.d
	picture = NOBLE_ESTATE_eventPicture
	is_triggered_only = yes
	fire_only_once = yes
	
	trigger = { 
		tag = U18
	}
	
	option = {
		name = flavour_reuyel.7.a
		ai_chance = {
			factor = 1
		}
		change_religion = the_jadd
		581 = {
			add_province_modifier = {
				name = U18_sunrise_temple
				duration = -1
			}
		}
	}
}	

#Jadd shared expertise
country_event = {
	id =  flavour_reuyel.8
	title = flavour_reuyel.8.t
	desc = flavour_reuyel.8.d
	picture = NOBLE_ESTATE_eventPicture
	is_triggered_only = yes
	fire_only_once = yes
	
	trigger = { 
		tag = U18
	}
	
	option = {
		name = flavour_reuyel.8.a
		ai_chance = {
			factor = 1
		}
		add_country_modifier = {
			name = U18_shared_expertise
			duration = 3650 #10 Years
			}
		}
	}
#Jadd Unified event
	country_event = {
	id =  flavour_reuyel.9
	title = flavour_reuyel.9.t
	desc = flavour_reuyel.9.d
	picture = NOBLE_ESTATE_eventPicture
	is_triggered_only = yes
	fire_only_once = yes
	
	trigger = { 
		tag = U18
	}
	
	option = {
		name = flavour_reuyel.9.a
		ai_chance = {
			factor = 1
		}
		add_prestige = 25
		add_stability = 1
		}
	}
	#NSC West Bahari Elves
	country_event = {
	id =  flavour_reuyel.10
	title = flavour_reuyel.10.t
	desc = flavour_reuyel.10.d
	picture = NOBLE_ESTATE_eventPicture
	is_triggered_only = yes
	fire_only_once = yes
	
	trigger = { 
		tag = U18
	}
	
	option = {
		name = flavour_reuyel.10.a
		ai_chance = {
			factor = 1
		}
		add_country_modifier = {
				name = U18_faith_of_chosen_ones
				duration = 3650 #10 Years
			}
		}
	}
	#NSC Cleanse Our Homeland
	country_event = {
	id =  flavour_reuyel.11
	title = flavour_reuyel.11.t
	desc = flavour_reuyel.11.d
	picture = NOBLE_ESTATE_eventPicture
	is_triggered_only = yes
	fire_only_once = yes
	
	trigger = { 
		tag = U18
	}
	
	option = {
		name = flavour_reuyel.11.a
		ai_chance = {
			factor = 1
		}
		define_advisor = {
		type = inquisitor
				name = "Galindan Elranzuir"
				skill = 2
				discount = yes
				culture = sun_elf
				religion = bulwari_sun_cult
			}
		}
	}
	
	country_event = {
	id =  flavour_reuyel.12
	title = flavour_reuyel.12.t
	desc = flavour_reuyel.12.d
	picture = NOBLE_ESTATE_eventPicture
	is_triggered_only = yes
	fire_only_once = yes
	
	trigger = { 
		tag = U18
	}
	
	option = {
		name = flavour_reuyel.12.a
		ai_chance = {
			factor = 1
		}
		add_prestige = 25
		add_stability = 1
		}
	}
	#Finish the citadel/Finding armour from age of god kings
	country_event = {
	id =  flavour_reuyel.13
	title = flavour_reuyel.13.t
	desc = flavour_reuyel.13.d
	picture = NOBLE_ESTATE_eventPicture
	is_triggered_only = yes
	fire_only_once = yes
	
	trigger = { 
		tag = U18
	}
	
	option = {
		name = flavour_reuyel.13.a
		ai_chance = {
			factor = 1
		}
		remove_province_modifier = U18_azka_szel_azka_3
			522 = {
				add_province_modifier = {
					name = U18_azka_szel_azka_4
					duration = -1
					}
			}
			add_country_modifier = {
				name = U18_god_king_armour
				duration = -1
			}
			add_treasury = -150
		}
	}
	
#cult of the eclipse event
country_event = {
	id =  flavour_reuyel.14
	title = flavour_reuyel.14.t
	desc = flavour_reuyel.14.d
	picture = NOBLE_ESTATE_eventPicture
	is_triggered_only = yes
	fire_only_once = yes
	
	trigger = { 
		tag = U18
	}
	
	option = {
		name = flavour_reuyel.14.a
		ai_chance = {
			factor = 1
		}
		
	}
	
	option = {
		name = flavour_reuyel.14.b
		ai_chance = {
			factor = 1
		}
		
	}
	
	option = {
		name = flavour_reuyel.14.c
		ai_chance = {
			factor = 1
		}
		
	}
}
	
	